Week 8
…
Computational engine: glmnet 

Tuning grid

5000 rows of different combinations of penalty and mixture

param_grid <- grid_regular(
  penalty(range = c(-3, 3)), # \lambda
  mixture(), # \alpha
  levels = c(1000, 5)
  ) |>
  print()

# A tibble: 5,000 × 2
   penalty mixture
     <dbl>   <dbl>
 1 0.001         0
 2 0.00101       0
 3 0.00103       0
 4 0.00104       0
 5 0.00106       0
 6 0.00107       0
 7 0.00109       0
 8 0.00110       0
 9 0.00112       0
10 0.00113       0
# ℹ 4,990 more rows
…
logit_fit |>
  # aggregate metrics from K folds
  collect_metrics() |>
  print(width = Inf) |>
  filter(.metric == "roc_auc") |>
  ggplot(mapping = aes(
    x = penalty, 
    y = mean, 
    color = factor(mixture)
    )) +
  geom_point() +
  labs(x = "Penalty", y = "CV AUC") +
  scale_x_log10()

# A tibble: 10,000 × 8
   penalty mixture .metric  .estimator  mean     n std_err
     <dbl>   <dbl> <chr>    <chr>      <dbl> <int>   <dbl>
 1 0.001         0 accuracy binary     0.902     5 0.00271
 2 0.001         0 roc_auc  binary     0.792     5 0.00396
 3 0.00101       0 accuracy binary     0.902     5 0.00271
 4 0.00101       0 roc_auc  binary     0.792     5 0.00396
 5 0.00103       0 accuracy binary     0.902     5 0.00271
 6 0.00103       0 roc_auc  binary     0.792     5 0.00396
 7 0.00104       0 accuracy binary     0.902     5 0.00271
 8 0.00104       0 roc_auc  binary     0.792     5 0.00396
 9 0.00106       0 accuracy binary     0.902     5 0.00271
10 0.00106       0 roc_auc  binary     0.792     5 0.00396
   .config                
   <chr>                  
 1 Preprocessor1_Model0001
 2 Preprocessor1_Model0001
 3 Preprocessor1_Model0002
 4 Preprocessor1_Model0002
 5 Preprocessor1_Model0003
 6 Preprocessor1_Model0003
 7 Preprocessor1_Model0004
 8 Preprocessor1_Model0004
 9 Preprocessor1_Model0005
10 Preprocessor1_Model0005
# ℹ 9,990 more rows
…
