week_7_presentation
…
Loading the data

data_clean <- read_rds("../Week 6-7/fss21.rds") |>
  print()

# A tibble: 30,162 × 13
   HRFS12M1   HRNUMHOU HRHTYPE GEREG PRCHLD HRPOOR PRTAGE PEEDUCA PEMLR PTDTRACE
   <fct>         <dbl> <fct>   <fct> <fct>  <fct>   <dbl> <fct>   <fct> <fct>   
 1 Food Secu…        1 Indivi… West  NoChi… NotPo…     35 HighSc… Empl… AIAN    
 2 Food Secu…        1 Indivi… South NoChi… NotPo…     36 Colleg… Empl… White   
 3 Food Secu…        3 Marrie… South NoChi… NotPo…     55 HighSc… Empl… White   
 4 Food Secu…        2 Marrie… South NoChi… NotPo…     85 Colleg… NotI… White   
 5 Food Secu…        2 Marrie… West  NoChi… Poor       69 HighSc… NotI… AIAN    
 6 Food Secu…        1 Indivi… Nort… NoChi… NotPo…     51 HighSc… Empl… White   
 7 Low Food …        2 Unmarr… Midw… Child… Poor       54 HighSc… NotI… White   
 8 Food Secu…        3 Marrie… South Child… NotPo…     46 Colleg… Empl… White   
 9 Food Secu…        2 Marrie… Midw… NoChi… NotPo…     69 HighSc… NotI… White   
10 Food Secu…        2 Marrie… South NoChi… NotPo…     75 HighSc… NotI… Black   
# ℹ 30,152 more rows
# ℹ 3 more variables: HHSUPWGT <dbl>, PEHSPNON <fct>, HRFS12M1_binary <fct>
…
Engine-Specific Arguments:
  standardize = FALSE

Computational engine: glmnet 

Tuning Grid

param_grid <- grid_regular(
  penalty(range = c(-3, 3)), # \lambda
  mixture(), # \alpha
  levels = c(1000, 5)
  ) |>
  print()

# A tibble: 5,000 × 2
   penalty mixture
     <dbl>   <dbl>
 1 0.001         0
 2 0.00101       0
 3 0.00103       0
 4 0.00104       0
 5 0.00106       0
 6 0.00107       0
 7 0.00109       0
 8 0.00110       0
 9 0.00112       0
10 0.00113       0
# ℹ 4,990 more rows
…
logit_fit |>
  # aggregate metrics from K folds
  collect_metrics() |>
  print(width = Inf) |>
  filter(.metric == "roc_auc") |>
  ggplot(mapping = aes(
    x = penalty, 
    y = mean, 
    color = factor(mixture)
    )) +
  geom_point() +
  labs(x = "Penalty", y = "CV AUC") +
  scale_x_log10()

# A tibble: 10,000 × 8
   penalty mixture .metric  .estimator  mean     n std_err
     <dbl>   <dbl> <chr>    <chr>      <dbl> <int>   <dbl>
 1 0.001         0 accuracy binary     0.902     5 0.00271
 2 0.001         0 roc_auc  binary     0.792     5 0.00396
 3 0.00101       0 accuracy binary     0.902     5 0.00271
 4 0.00101       0 roc_auc  binary     0.792     5 0.00396
 5 0.00103       0 accuracy binary     0.902     5 0.00271
 6 0.00103       0 roc_auc  binary     0.792     5 0.00396
 7 0.00104       0 accuracy binary     0.902     5 0.00271
 8 0.00104       0 roc_auc  binary     0.792     5 0.00396
 9 0.00106       0 accuracy binary     0.902     5 0.00271
10 0.00106       0 roc_auc  binary     0.792     5 0.00396
   .config                
   <chr>                  
 1 Preprocessor1_Model0001
 2 Preprocessor1_Model0001
 3 Preprocessor1_Model0002
 4 Preprocessor1_Model0002
 5 Preprocessor1_Model0003
 6 Preprocessor1_Model0003
 7 Preprocessor1_Model0004
 8 Preprocessor1_Model0004
 9 Preprocessor1_Model0005
10 Preprocessor1_Model0005
# ℹ 9,990 more rows
…
